Final Project
…
train_data_df1 <- clean_df_2015B %>% rbind(clean_df_2014B) %>%  
  rbind(clean_df_2013B) %>% 
  rbind(clean_df_2012B) %>% 
  rbind(clean_df_2011B)

train_data_df1

## # A tibble: 60 x 2
##    month  ratio
##    <chr>  <dbl>
##  1 Jan   0.0978
##  2 Feb   0.0837
##  3 Mar   0.0895
##  4 Apr   0.0827
##  5 May   0.0824
##  6 Jun   0.0779
##  7 Jul   0.0800
##  8 Aug   0.0791
##  9 Sep   0.0774
## 10 Oct   0.0824
## # ... with 50 more rows
…
